comparator/simulation/qsim/COMPARATOR.msim.vcd
$comment
	File created using the following command:
		vcd file COMPARATOR.msim.vcd -direction
$end
$date
	Sat May 25 13:22:36 2019
$end
$version
	ModelSim Version 10.1d
$end
$timescale
	1ps
$end
$scope module COMPARATOR_vlg_vec_tst $end
$var reg 4 ! A0_A3 [3:0] $end
$var reg 4 " B0_B3 [3:0] $end
$var reg 1 # enable $end
$var reg 1 $ reset $end
$var wire 1 % A $end
$var wire 1 & B $end
$var wire 1 ' C $end
$var wire 1 ( state [1] $end
$var wire 1 ) state [0] $end
$var wire 1 * sampler $end
$scope module i1 $end
$var wire 1 + gnd $end
$var wire 1 , vcc $end
$var wire 1 - unknown $end
$var tri1 1 . devclrn $end
$var tri1 1 / devpor $end
$var tri1 1 0 devoe $end
$var wire 1 1 reset~combout $end
$var wire 1 2 LessThan0~2_combout $end
$var wire 1 3 LessThan0~0_combout $end
$var wire 1 4 LessThan0~1_combout $end
$var wire 1 5 LessThan0~3_combout $end
$var wire 1 6 enable~combout $end
$var wire 1 7 A$latch~combout $end
$var wire 1 8 B~0_combout $end
$var wire 1 9 B~1_combout $end
$var wire 1 : B$latch~combout $end
$var wire 1 ; C~0_combout $end
$var wire 1 < C$latch~combout $end
$var wire 1 = state~0_combout $end
$var wire 1 > B0_B3~combout [3] $end
$var wire 1 ? B0_B3~combout [2] $end
$var wire 1 @ B0_B3~combout [1] $end
$var wire 1 A B0_B3~combout [0] $end
$var wire 1 B A0_A3~combout [3] $end
$var wire 1 C A0_A3~combout [2] $end
$var wire 1 D A0_A3~combout [1] $end
$var wire 1 E A0_A3~combout [0] $end
$upscope $end
$upscope $end
$enddefinitions $end
#0
$dumpvars
b0 !
b0 "
1#
0$
0%
1&
0'
0)
0(
x*
0+
1,
x-
1.
1/
10
01
12
03
04
05
16
07
18
19
1:
1;
0<
1=
0A
0@
0?
0>
0E
0D
0C
0B
$end
#25000
b1 "
1A
0*
08
0;
09
1<
0:
1'
0&
#30000
b1 !
1E
1*
18
1;
19
0<
1:
0'
1&
#50000
b11 "
b10 "
0A
1@
0*
08
0;
09
1<
0:
1'
0&
#60000
b11 !
b10 !
0E
1D
1*
18
1;
19
0<
1:
0'
1&
#75000
b11 "
1A
0*
08
0;
09
1<
0:
1'
0&
#90000
b11 !
1E
1*
18
1;
19
0<
1:
0'
1&
#100000
b111 "
b101 "
b100 "
0A
0@
1?
0*
08
14
02
0;
09
1<
0:
1'
0&
#120000
b111 !
b101 !
b100 !
0E
0D
1C
1*
18
04
12
1;
19
0<
1:
0'
1&
#125000
b101 "
1A
0*
08
0;
09
1<
0:
1'
0&
#150000
b111 "
b101 !
b110 "
1E
0A
1@
1*
#175000
b111 "
1A
0*
#180000
b111 !
b110 !
0E
1D
1*
#200000
b1111 "
b1011 "
b1001 "
b1000 "
0A
0@
0?
1>
0*
14
02
#210000
b111 !
1E
1*
#225000
b1001 "
1A
0*
#240000
b1111 !
b1011 !
b1001 !
b1000 !
0E
0D
0C
1B
1*
04
12
#250000
b1011 "
b1010 "
0A
1@
0*
#270000
b1001 !
1E
1*
#275000
b1011 "
1A
0*
#300000
1$
b1111 "
b1011 !
b1101 "
b1010 !
b1100 "
11
0E
1D
0A
0@
1?
1*
0<
14
02
1(
0'
#325000
b1101 "
1A
0*
#330000
b1011 !
1E
1*
#350000
b1111 "
b1110 "
0A
1@
0*
#360000
b1111 !
b1101 !
b1100 !
0E
0D
1C
1*
04
12
#375000
b1111 "
1A
0*
#390000
b1101 !
1E
1*
#400000
b111 "
b11 "
b1 "
b0 "
0A
0@
0?
0>
0*
14
13
02
1;
15
#420000
b1111 !
b1110 !
0E
1D
1*
#425000
b1 "
1A
0*
#440000
0$
01
1*
17
0(
1%
#450000
b11 "
b1111 !
b10 "
1E
0A
1@
0*
#475000
b11 "
1A
1*
18
04
#480000
b111 !
b11 !
b1 !
b0 !
0E
0D
0C
0B
0*
08
03
12
0;
05
1<
07
1'
0%
#500000
b111 "
b101 "
b100 "
0A
0@
1?
1*
18
02
#510000
b1 !
1E
0*
08
14
#525000
b101 "
1A
1*
18
04
#540000
b11 !
b10 !
0E
1D
0*
08
14
#550000
b111 "
b110 "
0A
1@
1*
18
04
#570000
b11 !
1E
0*
08
14
#575000
b111 "
1A
1*
18
04
#600000
b1111 "
b111 !
b1011 "
b101 !
b1001 "
b100 !
b1000 "
0E
0D
1C
0A
0@
0?
1>
0*
#625000
b1001 "
1A
1*
08
#630000
b101 !
1E
0*
18
#650000
b1011 "
b1010 "
0A
1@
1*
08
#660000
b111 !
b110 !
0E
1D
0*
18
#675000
b1011 "
1A
1*
08
#690000
b111 !
1E
0*
18
#700000
b1111 "
b1101 "
b1100 "
0A
0@
1?
1*
08
14
#720000
b1111 !
b1011 !
b1001 !
b1000 !
0E
0D
0C
1B
0*
18
04
#725000
b1101 "
1A
1*
08
#750000
b1111 "
b1001 !
b1110 "
1E
0A
1@
0*
#775000
b1111 "
1A
1*
#780000
b1011 !
b1010 !
0E
1D
0*
#800000
b111 "
b11 "
b1 "
b0 "
0A
0@
0?
0>
1*
14
13
1;
15
0<
17
0'
1%
#810000
b1011 !
1E
0*
#825000
b1 "
1A
1*
#830000
0#
06
0*
0=
1)
#840000
b1111 !
b1101 !
b1100 !
0E
0D
1C
1*
04
#850000
b11 "
b10 "
0A
1@
0*
#870000
b1101 !
1E
1*
#875000
b11 "
1A
0*
#900000
b111 "
b1111 !
b101 "
b1110 !
b100 "
0E
1D
0A
0@
1?
1*
14
#925000
b101 "
1A
0*
#930000
b1111 !
1E
1*
#950000
b111 "
b110 "
0A
1@
0*
#960000
b111 !
b11 !
b1 !
b0 !
0E
0D
0C
0B
1*
04
03
0;
05
#975000
b111 "
1A
0*
#990000
b1 !
1E
1*
